{
  "project_info": {
    "project_number": "349353883056",
    "firebase_url": "https://alibicall-203111.firebaseio.com",
    "project_id": "alibicall-203111",
    "storage_bucket": "alibicall-203111.appspot.com"
  },
  "client": [
    {
      "client_info": {
        "mobilesdk_app_id": "1:349353883056:android:0429e4eb6e24d050",
        "android_client_info": {
          "package_name": "com.charles.alibi"
        }
      },
      "oauth_client": [
        {
          "client_id": "349353883056-fl9fqs8llu8van55d13ep3d6gl04pfuj.apps.googleusercontent.com",
          "client_type": 1,
          "android_info": {
            "package_name": "com.charles.alibi",
            "certificate_hash": "c3c3947032d3dbe36ff6a0295d8af47955d23612"
          }
        },
        {
          "client_id": "349353883056-4qj2ueqk89t7ifkjhhtbv92c7e1ehda8.apps.googleusercontent.com",
          "client_type": 3
        }
      ],
      "api_key": [
        {
          "current_key": "AIzaSyBA8HKZZ383TQu2EthASCqBKzitb1JFREY"
        }
      ],
      "services": {
        "analytics_service": {
          "status": 1
        },
        "appinvite_service": {
          "status": 2,
          "other_platform_oauth_client": [
            {
              "client_id": "349353883056-4qj2ueqk89t7ifkjhhtbv92c7e1ehda8.apps.googleusercontent.com",
              "client_type": 3
            }
          ]
        },
        "ads_service": {
          "status": 2
        }
      }
    }
  ],
  "configuration_version": "1"
}